{
  "project_info": {
    "project_number": "596897541693",
    "firebase_url": "https://my-money-tracker-6736d.firebaseio.com",
    "project_id": "my-money-tracker-6736d",
    "storage_bucket": "my-money-tracker-6736d.appspot.com"
  },
  "client": [
    {
      "client_info": {
        "mobilesdk_app_id": "1:596897541693:android:00b763ede361d94d1a8454",
        "android_client_info": {
          "package_name": "com.mjandrevska.my_money_tracker"
        }
      },
      "oauth_client": [
        {
          "client_id": "596897541693-nj08nmdu07iatg3krpq1tk8u5mgo36sp.apps.googleusercontent.com",
          "client_type": 3
        }
      ],
      "api_key": [
        {
          "current_key": "AIzaSyCvFoC-Y_o5OQg9bkfelN-gB_-iy4z4v0A"
        }
      ],
      "services": {
        "appinvite_service": {
          "other_platform_oauth_client": [
            {
              "client_id": "596897541693-nj08nmdu07iatg3krpq1tk8u5mgo36sp.apps.googleusercontent.com",
              "client_type": 3
            }
          ]
        }
      }
    }
  ],
  "configuration_version": "1"
}